Filename,condition,group,group2,type,mouse,N_reads,Processed_Reads,Assigned_reads,Assign_read%,N_identified_entities
m1_multipep,treat_m,pep,m_pep,m_pep,one,46546300,45468267,32978485,(72.5%),20367
m1_nopep,ctrl_1,ctrl,ctrl,No,one,55759762,56137821,38127588,(67.9%),21286
m1_onexpep,treat_1,pep,one_pep,one_pep,one,42606537,43276667,29413396,(68.0%),20347
m2_multipep,treat_m,pep,m_pep,m_pep,two,59817234,58415901,43236778,(74.0%),22120
m2_nopep,ctrl,ctrl,ctrl,No,two,34253688,34011903,24529788,(72.1%),21023
m2_onexpep,treat_1,pep,one_pep,one_pep,two,45741353,45943360,32453198,(70.6%),20697
m3_multipep,treat_m,pep,m_pep,m_pep,three,55034563,54544863,39400700,(72.2%),20947
m3_nopep,ctrl_1,ctrl,ctrl,No,three,55555891,56896074,36064651,(63.4%),21335
m3_onexpep,treat_1,pep,one_pep,one_pep,three,42604447,42170835,30527869,(72.4%),21111
m4_multipep,treat_m,pep,m_pep,m_pep,four,89109225,85270649,64149089,(75.2%),22523
m4_nopep,ctrl_1,ctrl,ctrl,No,four,63039699,60783343,46291652,(76.2%),21938
m4_onexpep,treat_1,pep,one_pep,one_pep,four,51310679,50230577,37834891,(75.3%),21125
m5_multipep,treat_m,pep,m_pep,m_pep,five,66944112,64971450,49207541,(75.7%),21753
