sample,SampleRef,Type,nReads,star_Reads,Aligned_reads,Multimapping_reads,Overall_alignment,counts_reads,Assigned_reads,% of raw clusters per lane,% Perfect Index Reads,% One Mismatch Reads (Index)
KO10,KO10,KO,25527090,25523215,22718014,1111247,89.01%,25852905,19738175 (76.3%),10.69,98.47,1.53
KO11,KO11,KO,25058718,25029647,22044018,1205044,88.07%,25492045,19140690 (75.1%),10.49,97.92,2.08
KO7,KO7,KO,24806742,24824242,21736607,1186389,87.56%,25083710,18822239 (75.0%),10.38,98.22,1.78
KO8,KO8,KO,25868698,25871507,22522326,1213449,87.05%,25953366,19562591 (75.4%),10.83,98.28,1.72
KO9,KO9,KO,16614930,16630861,14645704,759667,88.06%,16838996,12722318 (75.6%),6.96,98.34,1.66
WT1,WT1,WT,15147752,15160411,13208210,796915,87.12%,15470961,11436911 (73.9%),6.34,97.98,2.02
WT2,WT2,WT,21920842,21928794,18516471,1016660,84.44%,21529266,15091813 (70.1%),9.18,97.61,2.39
WT3,WT3,WT,15585770,15609260,11421506,684805,73.17%,13442467,8931820 (66.4%),6.52,96.04,3.96
WT4,WT4,WT,22855840,22868114,19111994,1144073,83.57%,22553100,16157015 (71.6%),9.57,97.45,2.55
WT5,WT5,WT,18310430,18349364,14431194,942262,78.65%,17424811,10345887 (59.4%),7.67,96.26,3.74
